﻿Номер;Дата платежа;Водитель (фамилия);Машина (госномер);Тип (нал/на карту);Тип платежа;Внесенная сумма;Комментарий
6;09.07.2019;Данилов Шомоил Владимирович;Е969ТТ750;Наличные;Платеж по договору;5000;
7;10.07.2019;Данилов Шомоил Владимирович;Е969ТТ750;Наличные;Арендный платеж;7100;
8;10.07.2019;Данилов Шомоил Владимирович;Е969ТТ750;На карту;Арендный платеж;5500;
9;18.07.2019;Данилов Шомоил Владимирович;Е969ТТ750;На карту;Арендный платеж;12600;
10;25.07.2019;Данилов Шомоил Владимирович;Е969ТТ750;На карту;Арендный платеж;7600;
11;29.07.2019;Данилов Шомоил Владимирович;Е969ТТ750;На карту;Арендный платеж;5000;
12;01.08.2019;Данилов Шомоил Владимирович;Е969ТТ750;На карту;Арендный платеж;6300;
13;02.08.2019;Данилов Шомоил Владимирович;Е969ТТ750;На карту;Арендный платеж;6300;
14;08.08.2019;Данилов Шомоил Владимирович;Е969ТТ750;На карту;Арендный платеж;5900;
15;10.08.2019;Данилов Шомоил Владимирович;Е969ТТ750;На карту;Арендный платеж;5600;
16;12.08.2019;Данилов Шомоил Владимирович;Е969ТТ750;На карту;Арендный платеж;1100;
17;12.08.2019;Данилов Шомоил Владимирович;Е969ТТ750;На карту;Наши штрафы по договору;300;
18;12.08.2019;Данилов Шомоил Владимирович;Е969ТТ750;На карту;Штраф ПДД (строго);300;№ 18810177190805317106
19;15.08.2019;Данилов Шомоил Владимирович;Е969ТТ750;На карту;Штраф ПДД (строго);300;№ 18810177190814259539
20;15.08.2019;Данилов Шомоил Владимирович;Е969ТТ750;На карту;Арендный платеж;10000;
21;16.08.2019;Данилов Шомоил Владимирович;Е969ТТ750;На карту;Арендный платеж;2600;
22;18.08.2019;Данилов Шомоил Владимирович;Е969ТТ750;На карту;Штраф ПДД (строго);300;№ 18810177190817263431
23;18.08.2019;Данилов Шомоил Владимирович;Е969ТТ750;На карту;Штраф ПДД (строго);300;№ 18810177190817312597
24;22.08.2019;Данилов Шомоил Владимирович;Е969ТТ750;Наличными;Арендный платеж;5400;
25;24.08.2019;Данилов Шомоил Владимирович;Е969ТТ750;Наличными;Арендный платеж;6600;
26;30.08.2019;Данилов Шомоил Владимирович;Е969ТТ750;Наличными;Арендный платеж;6000;
27;31.08.2019;Данилов Шомоил Владимирович;Е969ТТ750;Наличными;Арендный платеж;7000;
28;07.09.2019;Данилов Шомоил Владимирович;Е969ТТ750;Наличными;Арендный платеж;5600;
29;14.09.2020;Данилов Шомоил Владимирович;Е969ТТ750;Наличными;Арендный платеж;12600;
30;14.09.2019;Данилов Шомоил Владимирович;Е969ТТ750;Наличными;Наши штрафы по договору;300;за бумагу
31;21.09.2019;Данилов Шомоил Владимирович;Е969ТТ750;Наличными;Штраф ПДД (строго);300;№ 18810177190914224583
32;21.09.2019;Данилов Шомоил Владимирович;Е969ТТ750;Наличными;Штраф ПДД (строго);1550;№ 0356043010119091600036383
33;21.09.2019;Данилов Шомоил Владимирович;Е969ТТ750;Наличными;Штраф ПДД (строго);300;№ 18810177190918063185
34;21.09.2019;Данилов Шомоил Владимирович;Е969ТТ750;Наличными;Арендный платеж;50;
35;07.10.2019;Данилов Шомоил Владимирович;Е969ТТ750;Наличными;Арендный платеж;15000;
36;12.10.2019;Данилов Шомоил Владимирович;Е969ТТ750;Наличными;Арендный платеж;8350;
37;12.10.2019;Данилов Шомоил Владимирович;Е969ТТ750;Наличными;Наши штрафы по договору;300;за бумагу
38;19.10.2019;Данилов Шомоил Владимирович;Е969ТТ750;Наличными;Арендный платеж;9000;наличными
39;19.10.2019;Данилов Шомоил Владимирович;Е969ТТ750;Наличными;Штраф ПДД (строго);300;№ 18810177191013076003
40;28.10.2019;Данилов Шомоил Владимирович;Е969ТТ750;На карту;Арендный платеж;8000;на карту
41;29.10.2019;Данилов Шомоил Владимирович;Е969ТТ750;Наличными;Арендный платеж;3000;
42;29.10.2019;Данилов Шомоил Владимирович;Е969ТТ750;Наличными;Штраф ПДД (строго);300;№ 18810177191022926375
43;29.10.2019;Данилов Шомоил Владимирович;Е969ТТ750;Наличными;Штраф ПДД (строго);300;№ 18810177191022333927
44;02.11.2019;Данилов Шомоил Владимирович;Е969ТТ750;Наличными;Арендный платеж;6500;наличными
45;11.11.2019;Данилов Шомоил Владимирович;Е969ТТ750;Наличными;Арендный платеж;13100;наличными
46;11.11.2019;Данилов Шомоил Владимирович;Е969ТТ750;Наличными;Наши штрафы по договору;300;за бумагу
47;11.11.2019;Данилов Шомоил Владимирович;Е969ТТ750;Наличными;Штраф ПДД (строго);300;№ 18810177191106261129
48;20.11.2019;Данилов Шомоил Владимирович;Е969ТТ750;Наличными;Арендный платеж;16200;
49;20.11.2019;Данилов Шомоил Владимирович;Е969ТТ750;Наличными;Штраф ПДД (строго);300;№ 18810150191111678322
50;26.11.2019;Данилов Шомоил Владимирович;Е969ТТ750;На карту;Арендный платеж;10000;
51;26.11.2019;Данилов Шомоил Владимирович;Е969ТТ750;На карту;Штраф ПДД (строго);300;№ 18810177191123160610
52;30.11.2019;Данилов Шомоил Владимирович;Е969ТТ750;Наличными;Арендный платеж;7000;наличными
53;06.12.2019;Данилов Шомоил Владимирович;Е969ТТ750;Наличными;Арендный платеж;5200;наличными
54;06.12.2019;Данилов Шомоил Владимирович;Е969ТТ750;Наличными;Штраф ПДД (строго);300;№ 18810177191201355143
55;08.12.2019;Данилов Шомоил Владимирович;Е969ТТ750;На карту;Арендный платеж;5000;на карту был перевод 5500, комиссия за перевод -- 500
56;09.12.2019;Данилов Шомоил Владимирович;Е969ТТ750;Наличными;Арендный платеж;5000;наличными
57;09.12.2019;Данилов Шомоил Владимирович;Е969ТТ750;Наличными;Наши штрафы по договору;300;наличными, за бумагу
58;16.12.2019;Данилов Шомоил Владимирович;Е969ТТ750;Наличными;Арендный платеж;8000;наличными
59;21.12.2019;Данилов Шомоил Владимирович;Е969ТТ750;Наличными;Арендный платеж;19000;наличными
60;21.12.2019;Данилов Шомоил Владимирович;Е969ТТ750;Наличными;Штраф ПДД (строго);550;№ 18810177191218207074
61;21.12.2019;Данилов Шомоил Владимирович;Е969ТТ750;Наличными;Штраф ПДД (строго);300;№ 18810177191213120235
62;24.12.2019;Данилов Шомоил Владимирович;Е969ТТ750;Наличными;Наши штрафы по договору;600;за диагностическую карту
63;28.12.2019;Данилов Шомоил Владимирович;Е969ТТ750;Наличными;Арендный платеж;8500;наличными
64;30.12.2019;Данилов Шомоил Владимирович;Е969ТТ750;Наличными;Арендный платеж;3600;наличными
65;10.01.2020;Данилов Шомоил Владимирович;Е969ТТ750;Наличными;Арендный платеж;7000;наличными
66;10.01.2020;Данилов Шомоил Владимирович;Е969ТТ750;Наличными;Наши штрафы по договору;300;за бумагу
67;10.01.2020;Данилов Шомоил Владимирович;Е969ТТ750;Наличными;Штраф ПДД (строго);300;№ 18810177191228143562
68;16.01.2020;Данилов Шомоил Владимирович;Е969ТТ750;Наличными;Арендный платеж;12200;наличными
69;24.01.2020;Данилов Шомоил Владимирович;Е969ТТ750;На карту;Арендный платеж;14500;на карту был перевод 15000, комиссия за перевод -- 1500
70;04.02.2020;Данилов Шомоил Владимирович;Е969ТТ750;На карту;Арендный платеж;4500;на карту был перевод 5000, комиссия за перевод -- 500
71;05.02.2020;Данилов Шомоил Владимирович;Е969ТТ750;Наличными;Арендный платеж;18500;наличными
72;06.02.2020;Данилов Шомоил Владимирович;Е969ТТ750;На карту;Арендный платеж;3150;на карту был перевод 3500, комиссия за перевод -- 350
