﻿Номер;Дата платежа;Водитель (фамилия);Машина (госномер);Тип (нал/на карту);Тип платежа;Внесенная сумма;Комментарий
103;31.12.2019;Нурмухамед Бакыт;Н849ВК799;Наличные;Арендный платеж;915000;
104;01.01.2020;Нурмухамед Бакыт;Н849ВК799;Списано с диспетчерской;Арендный платеж;1830;
105;02.01.2020;Нурмухамед Бакыт;Н849ВК799;Списано с диспетчерской;Арендный платеж;1830;
106;03.01.2020;Нурмухамед Бакыт;Н849ВК799;Списано с диспетчерской;Арендный платеж;1830;
107;04.01.2020;Нурмухамед Бакыт;Н849ВК799;Списано с диспетчерской;Арендный платеж;1830;
108;05.01.2020;Нурмухамед Бакыт;Н849ВК799;Списано с диспетчерской;Арендный платеж;1830;
109;06.01.2020;Нурмухамед Бакыт;Н849ВК799;Списано с диспетчерской;Арендный платеж;1830;
110;07.01.2020;Нурмухамед Бакыт;Н849ВК799;Списано с диспетчерской;Арендный платеж;1830;
111;08.01.2020;Нурмухамед Бакыт;Н849ВК799;Списано с диспетчерской;Арендный платеж;1830;
112;09.01.2020;Нурмухамед Бакыт;Н849ВК799;Списано с диспетчерской;Арендный платеж;1830;
113;11.01.2020;Нурмухамед Бакыт;Н849ВК799;Списано с диспетчерской;Арендный платеж;1830;
114;12.01.2020;Нурмухамед Бакыт;Н849ВК799;Списано с диспетчерской;Арендный платеж;1830;
115;13.01.2020;Нурмухамед Бакыт;Н849ВК799;Списано с диспетчерской;Арендный платеж;1830;
116;14.01.2020;Нурмухамед Бакыт;Н849ВК799;Списано с диспетчерской;Арендный платеж;1830;
117;15.01.2020;Нурмухамед Бакыт;Н849ВК799;Списано с диспетчерской;Арендный платеж;1830;
118;16.01.2020;Нурмухамед Бакыт;Н849ВК799;Списано с диспетчерской;Арендный платеж;1830;
119;17.01.2020;Нурмухамед Бакыт;Н849ВК799;Списано с диспетчерской;Арендный платеж;1830;
120;18.01.2020;Нурмухамед Бакыт;Н849ВК799;Наличные;Арендный платеж;1800;
121;18.01.2020;Нурмухамед Бакыт;Н849ВК799;Списано с диспетчерской;Арендный платеж;1830;
122;19.01.2020;Нурмухамед Бакыт;Н849ВК799;Списано с диспетчерской;Арендный платеж;1830;
123;20.01.2020;Нурмухамед Бакыт;Н849ВК799;Списано с диспетчерской;Арендный платеж;1830;
124;20.01.2020;Нурмухамед Бакыт;Н849ВК799;Списано с диспетчерской;Арендный платеж;1830;
125;21.01.2020;Нурмухамед Бакыт;Н849ВК799;Списано с диспетчерской;Арендный платеж;30;
126;22.01.2020;Нурмухамед Бакыт;Н849ВК799;Списано с диспетчерской;Арендный платеж;1830;
127;23.01.2020;Нурмухамед Бакыт;Н849ВК799;Списано с диспетчерской;Арендный платеж;1830;
128;24.01.2020;Нурмухамед Бакыт;Н849ВК799;Списано с диспетчерской;Арендный платеж;1830;
129;25.01.2020;Нурмухамед Бакыт;Н849ВК799;Списано с диспетчерской;Арендный платеж;1830;
130;26.01.2020;Нурмухамед Бакыт;Н849ВК799;Списано с диспетчерской;Арендный платеж;1830;
131;27.01.2020;Нурмухамед Бакыт;Н849ВК799;Списано с диспетчерской;Арендный платеж;1830;
132;28.01.2020;Нурмухамед Бакыт;Н849ВК799;Списано с диспетчерской;Арендный платеж;1830;
133;29.01.2020;Нурмухамед Бакыт;Н849ВК799;Списано с диспетчерской;Арендный платеж;1830;
134;30.01.2020;Нурмухамед Бакыт;Н849ВК799;Списано с диспетчерской;Арендный платеж;1830;
135;31.01.2020;Нурмухамед Бакыт;Н849ВК799;Списано с диспетчерской;Арендный платеж;1830;
136;01.02.2020;Нурмухамед Бакыт;Н849ВК799;Списано с диспетчерской;Арендный платеж;1830;
137;02.02.2020;Нурмухамед Бакыт;Н849ВК799;Списано с диспетчерской;Арендный платеж;1830;
138;03.02.2020;Нурмухамед Бакыт;Н849ВК799;Списано с диспетчерской;Арендный платеж;1830;
139;04.02.2020;Нурмухамед Бакыт;Н849ВК799;Списано с диспетчерской;Арендный платеж;1830;
140;05.02.2020;Нурмухамед Бакыт;Н849ВК799;Списано с диспетчерской;Арендный платеж;1830;
141;06.02.2020;Нурмухамед Бакыт;Н849ВК799;Списано с диспетчерской;Арендный платеж;1830;
142;07.02.2020;Нурмухамед Бакыт;Н849ВК799;Списано с диспетчерской;Арендный платеж;1830;
143;08.02.2020;Нурмухамед Бакыт;Н849ВК799;Списано с диспетчерской;Арендный платеж;1830;
144;09.02.2020;Нурмухамед Бакыт;Н849ВК799;Списано с диспетчерской;Арендный платеж;1830;
145;10.02.2020;Нурмухамед Бакыт;Н849ВК799;Списано с диспетчерской;Арендный платеж;1830;
146;11.02.2020;Нурмухамед Бакыт;Н849ВК799;Списано с диспетчерской;Арендный платеж;1830;
147;12.02.2020;Нурмухамед Бакыт;Н849ВК799;Списано с диспетчерской;Арендный платеж;1830;
148;13.02.2020;Нурмухамед Бакыт;Н849ВК799;Списано с диспетчерской;Арендный платеж;1830;
