﻿Номер;Дата платежа;Водитель (фамилия);Машина (госномер);Тип (нал/на карту);Тип платежа;Внесенная сумма;Комментарий
364;03.01.2020;Саранов Джангр Александрович;К473ТС750;На карту;Арендный платеж;7000;
365;09.01.2020;Саранов Джангр Александрович;К473ТС750;Наличные;Арендный платеж;3500;
366;11.01.2020;Саранов Джангр Александрович;К473ТС750;Наличные;Арендный платеж;12250;
367;18.01.2020;Саранов Джангр Александрович;К473ТС750;Наличные;Арендный платеж;12250;
368;25.01.2020;Саранов Джангр Александрович;К473ТС750;Наличные;Арендный платеж;12250;
369;01.02.2020;Саранов Джангр Александрович;К473ТС750;Наличные;Арендный платеж;12250;
370;08.02.2020;Саранов Джангр Александрович;К473ТС750;Наличные;Арендный платеж;12250;
;;;;;;;
;;;;;;;
;;;;;;;
;;;;;;;
;;;;;;;
;;;;;;;
;;;;;;;
