﻿Статус;Марка;Модель;№ машины;Водитель;VIN;КПП;Год выпуска;Страховая;Дата окончания страховки;Огр/неогр;ДК;СТС;Лицензия;№ Лицензии
Арендует;Hyundai;Solaris;А760ЕР799;Басов Вячеслав Александрович;Z94CT41CBFR402929;Автомат;2015;ВСК;22.07.2020;Без ограничений;06.05.2020;9911942178;ИП Аданькин Денис Алексеевич;277249 МО № 269275
Арендует;Ford;Focus;О739РВ777;Турдалиев Бектен Турдалиевч;X9FLXXEEBLDC44516;Механика;2013;Стерх;11.04.2020;Без ограничений;15.06.2020;9911942997;ИП Аданькин Денис Алексеевич;280094 МО № 272142
Арендует;Hyundai;Solaris;В600ТХ750;Кубатов Кутман Сапаралыевич;Z94CT41CAFR448856;Механика;2015;ВСК;27.11.2020;Без ограничений;29.05.2020;9906307067;ИП Щелкунов Эдгар Эвайевич;263237 МО № 255089
Арендует;Kia;Rio;Е738ТТ750;;Z94CB41AAGR311691;Механика;2015;ВСК;23.06.2020;Без ограничений;29.06.2020;9906383140;ИП Вальп Александр Арнольдович;254874 МО №246608
Выкупает;Hyundai;Solaris;Е553ТЕ750;Балтабаев Сардор Юсупович;Z94CT41CAFR482000;Механика;2015;ВСК;06.09.2020;Без ограничений;22.06.2020;5060830134;ИП Аданькин Денис Алексеевич;287254 МО № 279374
Выкупает;Hyundai;Solaris;Р725УВ750;Исманов Абдулрасул;Z94CT41CAFR403232;Механика;2015;ВСК;20.08.2020;Ограниченная;24.06.2020;9906342919;ИП Щелкунов Эдгар Эвайевич;265429 МО № 257411
Выкупает;Hyundai;Solaris;Р761УА750;Конурбаев Дулат Жумалдылович;Z94CT41CAFR442813;Механика;2015;ВСК;26.12.2020;Без ограничений;24.06.2020;9906307925;ИП Щелкунов Эдгар Эвайевич;264173 МО № 256033
Выкупает;Hyundai;Solaris;А337ХА750;Назаров Ырысбек Шавкатович;Z94CT41CBFR466568;Автомат;2015;ВСК;30.09.2020;Без ограничений;15.04.2020;9916172772;ИП Щелкунов Эдгар Эвайевич;286062 МО № 278171
Выкупает;Hyundai;Solaris;Т426СУ750;Сорокин Валентин Павлович;Z94CT41CAFR478584;Механика;2015;ВСК;07.10.2020;Без ограничений;08.04.2020;9915580159;ИП Аданькин Денис Алексеевич;290212 МО № 282360
Выкупает;Hyundai;Solaris;Х297УР750 ;Юлдашев Аброржон Баходирович;Z94CT41CBFR433875;Автомат;2015;ВСК;01.07.2020;Без ограничений;26.01.2020;9913875363;ИП Щелкунов Эдгар Эвайевич;274269 МО № 266274
Выкупает;Hyundai;Solaris;О477УЕ750 ;Калмыков Станислав Викторович;Z94CT41CBHR508826;Автомат;2016;ВСК;05.09.2020;Без ограничений;06.03.2020;9912037366;ИП Щелкунов Эдгар Эвайевич;282781 МО № 274866
Выкупает;Hyundai;Solaris;Н160ТЕ750;Низамов Шухратжон;Z94CT41CAFR454768;Механика;2015;ВСК;06.10.2020;Без ограничений;08.04.2020;5060798893;ИП Аданькин Денис Алексеевич;297846 МО № 290082
Выкупает;Hyundai;Solaris;К473ТС750;Саранов Джангр Александрович;Z94CT41CBFR419736;Автомат;2015;Стерх;10.04.2020;Без ограничений;23.01.2020;9908355150;ИП Щелкунов Эдгар Эвайевич;267246 МО № 259172
Выкупает;Kia;Rio;Е732ТТ750;Мамаков Исабек Аширбекович;Z94CB41ABGR298207;Автомат;2015;Стерх;19.05.2020;Без ограничений;24.06.2020;9906383141;ИП Вальп Александр Арнольдович;256896 МО № 248657
Выкупает;Hyundai;Solaris;А022ХВ750;Мамаков Бактыяр Аширбекович;Z94CT41CBFR460447;Автомат;2015;ВСК;06.09.2020;Без ограничений;27.03.2020;9912037467;ИП Щелкунов Эдгар Эвайевич;283115 МО № 275204
Выкупает;Hyundai;Solaris;А650ЕР799;Ибрагимов Адилет Шарапбекович;Z94CT41CAFR388691;Механика;2015;ВСК;20.10.2020;Без ограничений;22.04.2020;9912011237;ИП Щелкунов Эдгар Эвайевич;279953 МО № 271998
Выкупает;Kia;Rio;М081КН799;Салиев Кубанычбек Пулатович;Z94CB51ABHR087114;Автомат;2016;ВСК;24.08.2020;Без ограничений;29.06.2020;9912011869;ИП Щелкунов Эдгар Эвайевич;281457 МО № 273526
Выкупает;Kia;Rio;О516ТВ777;Ахмадалиев Бекболсун Узганович;Z94CB41AAGR377657;Механика;2016;Стерх;06.04.2020;Без ограничений;11.04.2020;9907379014;ИП Щелкунов Эдгар Эвайевич;263337 МО № 255192
Выкупает;Hyundai;Solaris;Н699ТА777;Омурзаков Белек Каныбекович ;Z94CT41DBDR228978;Автомат;2013;ВСК;10.09.2020;Без ограничений;29.05.2020;9912037977;ИП Щелкунов Эдгар Эвайевич;284119 МО № 276213
Выкупает;Hyundai;Solaris;Х253УР750;Токторбай уулу Садырбек;Z94CT41CBFR482147;Автомат;2015;ВСК;13.10.2020;Без ограничений;05.02.2020;9913875531;ИП Щелкунов Эдгар Эвайевич;275734 МО № 267750
Выкупает;Hyundai;Solaris;Р759УВ750;Жаныбеков Амир Канатович;Z94CT41CAFR403281;Механика;2015;Сибирский спас;27.01.2020;Без ограничений;23.01.2020;9906342923;ИП Щелкунов Эдгар Эвайевич;265431 МО № 257313
Выкупает;Hyundai;Solaris;Н396КА777;Хамидов Голибшо Маджидович ;Z94CU41DACR119118;Механика;2012;ВСК;27.09.2020;Без ограничений;06.05.2020;9916172691;ИП Аданькин Денис Алексеевич;286170 МО № 278281
Выкупает;Hyundai;Solaris;Т510СУ750;Каримов Хуршед Абдухалилович;Z94CT41CAFR478956;Механика;2015;Тинькофф Страхование;15.09.2020;Без ограничений;25.04.2020;5060782392;ИП Аданькин Денис Алексеевич;297844 МО № 290080
Выкупает;Skoda;Rapid;Х731МВ799;Турдукулов Данияр Жолчуевич;XW8AC1NHXGK107642;Автомат;2015;Стерх;31.05.2020;Без ограничений;30.05.2020;9906604868;ИП Щелкунов Эдгар Эвайевич;265436 МО № 257318
Выкупает;Kia;Cerato;Н849ВК799;Нурмухамед Бакыт;XWEFX411BE0003520;Автомат;2013;ВСК;05.08.2020;Ограниченная;05.02.2020;9913875721;ИП Щелкунов Эдгар Эвайевич;275756 МО № 267772
Выкупает;Hyundai;Solaris;Х265УР750;Абдимоминов Дамир Абдимоминович;Z94CT41CBFR420486;Автомат;2015;ВСК;08.07.2020;Без ограничений;12.02.2020;9913875393;ИП Щелкунов Эдгар Эвайевич;275739 МО № 267755
Выкупает;Hyundai;Solaris;Х359УР750;Курманбеков Бексултан Курманбекович;Z94CT41CBFR436463;Автомат;2015;ВСК;08.07.2020;Без ограничений;07.06.2020;9913875532;ИП Щелкунов Эдгар Эвайевич;275761 МО № 267777
Выкупает;Hyundai;Solaris;Х290УР750;;Z94CT41CBFR457118;Автомат;2015;ВСК;01.07.2020;Ограниченная;26.01.2020;9913875362;ИП Щелкунов Эдгар Эвайевич;274268 МО № 266273
Выкупает;Hyundai;Solaris;Х983ТО750;;Z94CT41CBFR419734;Автомат;2015;Стерх;10.04.2020;Без ограничений;23.01.2020;9907379230;ИП Щелкунов Эдгар Эвайевич;265433 МО № 257315
Выкупает;Hyundai;Solaris;С080СК777;;Z94CT41DBHR486067;Автомат;2015;ВСК;24.08.2020;Без ограничений;29.06.2020;9912011765;ИП Щелкунов Эдгар Эвайевич;281253 МО № 273319
Выкупает;Kia;Rio;А158АЕ799;;Z94CT41AAGR336746;Механика;2015;ВСК;17.11.2020;Без ограничений;19.05.2020;9913840398;ИП Аданькин Денис Алексеевич;270978 МО № 262941
Выкупает;Kia;Rio;В691ТК777;;Z94CT41AAGR377673;Механика;2015;Стерх;06.04.2020;Без ограничений;24.05.2020;9907344909;ИП Щелкунов Эдгар Эвайевич;263245 MO № 255097
Выкупает;Hyundai;Solaris;Н722НК750;;Z94CT41DBHR522283;Автомат;2016;ВСК;21.11.2020;Без ограничений;10.05.2020;9906246104;ИП Аданькин Денис Алексеевич;263066 МО № 254918
Выкупает;Hyundai;Solaris;А287УТ777;;Z94CT41CAFR387272;Механика;2015;ВСК;07.08.2020;Без ограничений;29.06.2020;9913822753;ИП Аданькин Денис Алексеевич;269422 МО № 261368
Выкупает;Hyundai;Solaris;Р339НК750;;Z94CT41CBHR520060;Автомат;2016;Стерх;02.06.2020;Без ограничений;29.06.2020;9906354907;ИП Вальп Александр Арнольдович;257336 МО № 249103
Выкупает;Hyundai;Solaris;Х232ТЕ750;;Z94CT41CAFR481637;Механика;2015;ВСК;30.10.2020;Без ограничений;02.05.2020;5060332045;ИП Аданькин Денис Алексеевич;289293 МО № 281435
Выкупает;Hyundai;Solaris;Х453УО750;;Z94CT41CBFR439369;Автомат;2015;ВСК;04.11.2020;Без ограничений;26.01.2020;9913875365;ИП Щелкунов Эдгар Эвайевич;274267 МО № 266272
Выкупает;Kia;Rio;Н086МА799;;Z94CB41BBHR378721;Автомат;2016;ВСК;04.10.2020;Без ограничений;20.02.2020;9915580160;ИП Щелкунов Эдгар Эвайевич;290164 МО №282312
Выкупает;Ford;Focus;У656МН799;;Z6F6XXEEC6FJ05087;Механика;2015;ВСК;04.11.2020;Без ограничений;06.05.2020;9906459602;подали на лицензию МСК;
Выкупает;Hyundai;Solaris;А274ХА750;;Z94CT41DBFR454390;Автомат;2015;ВСК;27.09.2020;Без ограничений;24.03.2020;9916172692;ИП Щелкунов Эдгар Эвайевич;286061 МО №278170
Выкупает;Nissan ;Teana;К893РА77;;Z8NBBUJ32CS035023;Автомат;2012;Альфа-страхование;16.08.2020;Без ограничений;;9906607652;;
Выкупает;Nissan ;Almera;Т173АР777;;Z8NAJL01048168534;Автомат;2014;ВСК;01.07.2020;Без ограничений;30.01.2020;9913836957;ИП Аданькин Денис Алексеевич;273106 МО №265292
Выкупает;Hyundai;Solaris;Е158ВТ799;;Z94CT41CAFR404030;Механика;2015;Ингосстрах;17.07.2020;Без ограничений;26.02.2020;9913875749;ИП Щелкунов Эдгар Эвайевич;275704 МО №267719
Выкупает;Kia;Rio;E969TT750;;Z94CB41ABGR326009;Автомат;2015;Стерх;19.05.2020;Без ограничений;24.06.2020;9906383554;ИП Вальп Александр Арнольдович;256743 МО № 248500
Выкупает;Kia;Rio;А255УА750;;Z94CB41ABGR328681;Автомат;2015;ВСК;12.06.2020;Без ограничений;03.06.2020;9907312799;ИП Вальп Александр Арнольдович;258971 МО № 250748
Свободна;Hyundai;Solaris;О421УЕ750;;Z94CT41CBFR438830;Автомат;2015;ВСК;21.08.2020;Без ограничений;18.03.2020;9912037152;ИП Щелкунов Эдгар Эвайевич;282777 МО № 274862
Свободна;Skoda;Rapid;К940УА750;;XW8AC1NH3GK107742;Автомат;2015;ВСК;10.12.2020;Без ограничений;12.06.2020;9915104028;ИП Щелкунов Эдгар Эвайевич;267145 МО № 259059
Свободна;Kia;Cerato;Р162РВ777;;XWEFX411BFC001306;Автомат;2015;ВСК;24.11.2020;Без ограничений;24.11.2020;9915595961;ИП Аданькин Денис Алексеевич;297848 МО № 290084
Свободна;Hyundai;Solaris;А687УТ777;;Z94CT41CADR297301;Механика;2014;ВСК;30.09.2020;Без ограничений;30.09.2020;9915533393;ИП Аданькин Денис Алексеевич;288371 МО № 280501
Свободна;Hyundai;Solaris;Н180УТ750;;Z94CT41CBFR345503;Автомат;2014;ВСК;15.07.2020;Без ограничений;22.06.2020;9911942710;ИП Аданькин Денис Алексеевич;278364 МО № 270400
Свободна;Hyundai;Solaris;Н203ВК799;;Z94CT41CAFR368893;Механика;2014;Ингосстрах;26.12.2019;Без ограничений;23.04.2020;9911942824;ИП Щелкунов Эдгар Эвайевич;286063 МО №278172
Свободна;Hyundai;Solaris;Р776УВ750;;Z94CT41CAFR403112;Механика;2015;Стерх;27.01.2020;Без ограничений;23.01.2020;9906342920;ИП Щелкунов Эдгар Эвайевич;265432 МО №257314
Свободна;Nissan ;Almera;Х272УА777;;Z8NAJL00052464968;Механика;2015;ВСК;25.11.2020;Без ограничений;27.05.2020;5060835373;ИП Аданькин Денис Алексеевич;264226 МО №256087
Свободна;Hyundai;Solaris;В436ЕУ799;;Z94CT41CBFR345058;Автомат;2014;ВСК;23.12.2020;Без ограничений;27.03.2020;9912037896;ИП Аданькин Денис Алексеевич;284210 МО №276305
Свободна;Hyundai;Solaris;Е121ВТ799;;Z94CT41CBFR419713;Механика;2015;Ингосстрах;15.10.2019;Ограниченная;;9913875722;ИП Щелкунов Эдгар Эвайевич;275702 МО № 267717
Свободна;Hyundai;Solaris;О025ХУ750;;Z94CT41CBFR460375;Автомат;2015;ВСК;03.12.2020;Без ограничений;;9915636533;подали на лицензию МСК;
