﻿Статус;№ машины;Водитель;Сумма аренды;Дата договора;Дата оплаты аренды;Первоначальный взнос;Выкупной платеж;Срок аренды;Тип аренды
Выкупает; А111АА99;Широков Николай Борисович;2000;10.01.2020;15.01.2020;5000;10000;365;день
Выкупает;B111BB99;Тест Тест Тест;10000;10.01.2020;15.01.2020;5000;10000;52;неделя
Выкупает;О297ЕО799;Бобоев Бобохон Абдуфаттоевич;2120;;;;;;
Выкупает;Н849ВК799;Нурмухамед Бакыт ;1830;;;;;;
Выкупает;А876ТН750;Итемиров Керим Тагайбекович;1750;06.07.2019;;;;;
Выкупает;О921РЕ777;Гадаев Нурбек;2050;;;;;;
Выкупает;Х629ТК750;Албейков Баккоргон Эрмекович;1750;;;;;;
Выкупает;С720АН799;Самат;1650;;;;;;
Выкупает;О851ЕР799;Гадаев Нурбек;1500;;;;;;
Выкупает;Н160ТЕ750;Низамов Шухаббосбек;1700;;;;;;
Выкупает;Р759УВ750;Жаныбек Амир Канатович;1700;;;;;;
Выкупает;Е969ТТ750;Данилов Шомоил Владимирович;1800;10.07.2019;;;;;
Выкупает;Т591СУ750;Жалилов Омурбек;1600;;;;;;
Выкупает;К893РА77;Жалилов Омурбек;2500;;;;;;
Выкупает;У656МН799;Темирбек уулу Афтандил;1800;10.07.2019;;;;;
Выкупает;Р980КХ777;Абраамян Севак Гамлетович;1600;;;;;;
Выкупает;О488ХВ777;Ракыбеков Иззатбек Муратович;1300;25.12.2019;;;;;
Выкупает;С881ЕО799;Калинович Руслан;1600;05.12.2019;;;;;
Выкупает;Р725УВ750;Исманов Абдулрасул;1600;27.06.2019;;;;;
Выкупает;Е889ТТ750;Хлюта Ризан;1600;05.06.2019;;;;;
Выкупает;Х232ТЕ750;Аскаралиев Руслан Баатырбекович;1600;31.10.2019;;;;;
Выкупает;Х649ТХ750;Жолдашев Алмазбек;1750;17.08.2019;;;;;
Выкупает;В102ТН750;Оморов Изат Зоотбекович;1600;04.09.2019;;;;;
Выкупает;Е230ВТ799;Ракыбеков Иззатбек Муратович;1600;23.05.2019;;;;;
Выкупает;Р761УА750;Конурбаев Дулат Жумалдылович;1600;26.05.2019;;;;;
Выкупает;О477УЕ750;Калмыков Станислав Викторович;2000;04.10.2019;;;;;
Выкупает;Х983ТО750;Салморбеков Камбар Жайдарберкович;1750;15.10.2019;;;;;
Выкупает;А249УТ777;Кубатов Кутман Сапаралыевич;1750;29.07.2019;;;;;
Выкупает;Н699ТА777;Омурзаков Белек Каныбекович;1300;24.10.2019;;;;;
Выкупает;О345УЕ750 ;Асанов Кутман Рахманбердиевич;1700;25.09.2019;;;;;
Выкупает;Х453УО750;Бактыбек уулу Доолот;1750;19.11.2019;;;;;
Выкупает;Х732ТО750;Кадыров Жандос Акылбекович;1950;10.06.2019;;;;;
Выкупает;О398УЕ750;Акпарали уулу Жыргалбек;1750;24.09.2019;;;;;
Выкупает;Т173АР777;Азимов Играр Дамед оглы;1600;22.11.2019;;;;;
Выкупает;У124ТВ750;Мустафокулов Бахром Имомкулович;1600;;;;;;
Выкупает;Т426СУ750;Сорокин Валентин Павлович;1600;23.12.2019;;;;;
Выкупает;Р339НК750;Итибаев Улан;1800;25.04.2019;;;;;
Выкупает;А932ТА750;Абдраимов Мунарбек Мухтарович;1750;16.12.2019;;;;;
Выкупает;А650ЕР799;Ибрагимов Адилет Шарапбекович;1600;25.11.2019;;;;;
Выкупает;Х359УР750;Курманбеков Бексултан;1750;28.12.2019;;;;;
Выкупает;А022ХВ750;Мамаков Бактыяр Аширбекович;1750;26.11.2019;;;;;
Выкупает;С080СК777;Позилов Раманбек Достонбекович;1850;11.06.2019;;;;;
Выкупает;Т510СУ750;Каримов Хуршед;1600;09.11.2019;;;;;
Выкупает;В208ТВ750;Нуров Фарух Жамолидинович;1600;18.07.2019;;;;;
Выкупает;Е732ТТ750;Мамаков Исабек Аширбоевич;1850;05.12.2019;;;;;
Выкупает;Т462ЕС777;Абдилкаимов Суйуналы Мырзанарович;1300;29.06.2019;;;;;
Выкупает;Х265УР750;Абдимоминов Дамир Абдимоминович;1750;16.12.2019;;;;;
Выкупает;К841УА750;Сонунбек Илешбек;1800;14.08.2019;;;;;
Выкупает;Н919ВУ799;Добрынин Андрей Рудольфович;1750;09.01.2020;;;;;
Выкупает;В691ТК777;Щерботоев Хамза Акимзадеевич;1750;19.05.2019;;;;;
Выкупает;М081КН799;Салиев Кубанычбек;1900;26.02.2019;;;;;
Выкупает;А255УА750;Бармалтаев Жакшылык Алимжанович;1750;13.06.2019;;;;;
Выкупает;Н238ЕС799;Шамбетов Мирзат Мухамедович;1600;31.05.2019;;;;;
Выкупает;К473ТС750;Саранов Джангр Александрович;1750;30.05.2019;;;;;
Выкупает;Н396КА777;Хамидов Голибшо Маджидович;1300;16.11.2019;;;;;
Выкупает;А274ХА750;Кадыров Эльдар Эрнисович;2200;19.10.2019;;;;;
Выкупает;Х290УР750;Джолоев Улан Кушчубекович;1750;27.07.2019;;;;;
Выкупает;Н086МА799;Марс уулу Жакшылык;2200;15.11.2019;;;;;
Выкупает;А158АЕ799;Эралиев Шухрат Исраилджонович;1600;01.08.2019;;;;;
Выкупает;Н722НК750;Абдуллаев Мухаммед Расулжанович;1950;15.07.2019;;;;;
Выкупает;А697ТН750;Данияров Азаматали Даниярович;1750;19.06.2019;;;;;
Выкупает;С925НС799;Писакин Юрий;1590;;;;;;
Выкупает;Е158ВТ799;Ибраимов Бактыяр Замирбекович;1600;09.10.2019;;;;;
Выкупает;О516ТВ777;Ахмадалиев Бекболсун Узганович;1750;03.08.2019;;;;;
Выкупает;Х027ТЕ750;Балаян Арайик Самвелович;1600;23.05.2019;;;;;
Выкупает;Е553ТЕ750;Балтабаев Сардор;1600;13.05.2019;;;;;
Выкупает;А626ТН750;Абударахимов Нарзулла Абдурафикович;1750;12.05.2019;;;;;
Выкупает;А287УТ777;Кадыров Эльдар Эрнисович;1600;08.08.2019;;;;;
Выкупает;Е967ТТ750;Халмурзаев Шерзод Садыкжанович;2000;15.07.2019;;;;;
Выкупает;М054НР799;Савельев Евгений;0;;;;;;
Выкупает;А442ОТ750;Савельев Евгений;0;19.11.2019;;;;;
Арендует;В600ТХ750;Кубатов Кутман Сапаралыевич;1100;07.12.2019;;;;;
Арендует;Е738ТТ750;Арзибаев Султан Арзибаевич;1100;21.11.2019;;;;;
Арендует;О739РВ777;Турдалиев Бектен Турдалиевич;1100;14.11.2019;;;;;
Арендует;А760ЕР799;Басов Вячеслав Александрович;1300;18.11.2019;;;;;
ЗП;О435УЕ750;Алимжанов Мирлан Алимжанович;0;09.01.2020;;;;;
ЗП;А198ХА750;Токбаев Азис Темирбекович;0;09.01.2020;;;;;
ЗП;О550УЕ750;Жумакадыров Кылычбек Жумакадырович;0;10.01.2020;;;;;
Выкупает;Х297УР750;Алмакунов Туран Турганалиевич;1750;11.01.2020;;;;;
Выкуплена;К527ТН750;Эркинбаев Эмил Маметбаевич;0;;;;;;
Выкуплена;Н552ОУ777;Савельев Евгений;0;;;;;;
Выкуплена;А981ОК37;Жалилов Омурбек;0;;;;;;
Выкуплена;Р475ХВ777;Савельев Евгений;0;;;;;;
Выкуплена;Е215СХ777;Савельев Евгений;0;;;;;;
Выкуплена;А663УТ777;Абдурашид ;0;;;;;;
Выкуплена;М778НЕ777;Савельев Евгений;0;;;;;;
Выкуплена;М697ТВ197;Савельев Евгений;0;;;;;;
Выкуплена;Р816ХВ777;Бобоев Бобохон Абдуфаттоевич;0;;;;;;
