﻿Номер;Дата платежа;Водитель (фамилия);Машина (госномер);Тип (нал/на карту);Внесенная сумма;Арендный платеж;Платеж по договору(перв взнос и выкупной)
1;24.01.2020;Широков Николай Борисович;А111АА99;Наличные;2000;2000;
2;24.01.2020;Широков Николай Борисович;А111АА99;Наличные;2000;;2000
3;24.01.2020;Широков Николай Борисович;А111АА99;Наличные;11;11;
4;24.01.2020;Широков Николай Борисович;А111АА99;На карту;1111;1111;
