﻿Фамилия;Имя;Отчество;Дата рождения;Серия паспорта;Номер паспорта;Кем выдан и дата выдачи;Адрес регистрации;Адрес фактического проживания;Телефон 1;Телефон 2;Серия вод. Удостоверения;Номер вод. Удостоверения;Тип вод прав;Дата действия вод прав;Категория водителя;Статус;Тип штрафа ГИБДД
Абдилкаимов;Суйуналы;Мырзанарович;;AN1781133;22502199400718;;;;;;DA;000560026;В-В1-С-С1;23.06.2015 по 23.06.2025;Старый;;У нас
Абдимоминов;Дамир;Абдимоминович;;;;;;;;;OG;000833272;;01.08.2017 по 01.08.2027;Старый;;У нас
Абдраимов;Мунарбек;Мухтарович;14.03.1995;AN2830943;21403199500361;МКК 50-38, 10.04.2012 по 10.04.2022;Город Москва ., ул. Лобненская д. 21 ., стр. 5;;8 (985) 195-66-33;8 (985) 195-26-31 Нурбек;MKK413031;001058229;В-В1-С-С1;12.06.2019 по 12.06.2029;Старый;;У нас
Абдуллаев;Мухаммед;Расулжанович;;;;;;;;;MKK414011;000955962;;22.06.2018 по 22.06.2028;Старый;;У нас
Абдурашид;Абдурашид;Абдурашид;;;;;;;;;;;;;Старый;;В ГИБДД
Абдыгапар уулу;Бактыбек;;;;;;;;;;OG;000739851;;06.12.2016 по 06.12.2026;Новый;;У нас
Абраамян;Севак;Гамлетович;;;;;;;;;;;;;Старый;;У нас
Абударахимов;Нарзулла;Абдурафикович;;;;;;;;;;;;;Старый;;У нас
Азимов;Играр;Дамед оглы;;;;;;;;;77УЕ;211605;;29.04.2010 по 29.04.2020;Старый;;У нас
Акпарали уулу;Жыргалбек;;;;;;;;;;AA;000666557;;;Старый;;У нас
Алимжанов;Мирлан;Алимжанович;;;;;;;;;MKK414011;001069935;;;Старый;;У нас
Алмакунов;Туран;Турганалиевич;;;;;;;;;NG;000820059;;19.06.2017 по 19.06.2027;Новый;;У нас
Арзибаев;Султан;Арзибаевич;;;;;;;;;MKK413011;001068847;В-С;;Старый;;У нас
Асанов;Кутман;Рахманбердиевич;;;;;;;;;MKK414021;000878950;;;Старый;;У нас
Ахмадалиев;Бекболсун;Узганович;;;;;;;;;OU;000789296;;;Старый;;У нас
Ахмадалиев;Абдурашид;Абдулхалилович;;;;;;;;;9914;761819;;14.01.2020 по 14.01.2030;Новый;;У нас
Балаян;Арайик;Самвелович;;;;;;;;;2627;471289;;25.04.2016 по 25.04.2026;Старый;;У нас
Балтабаев;Сардор;;;;;;;;;;2627;471289;;19.11.2018 по 19.11.2028;Старый;;У нас
Бармалтаев;Жакшылык;Алимжанович;;;;;;;;;MKK418011;000978859;;;Старый;;У нас
Басов;Вячеслав;Александрович;;;;;;;;;9912;641271;;;Старый;;У нас
Блинова;Анна;Владимировна;;;;;;;;;1527;172304;;16.06.2016 по 16.06.2026;Новый;;У нас
Бобоев;Бобохон;Абдуфаттоевич;;;;;;;;;9906;632809;;12.02.2019 по 12.02.2029;Старый;;У нас
Гадаев;Нурбек;;;;;;;;;;;;;;Старый;;У нас
Данилов;Шомоил;Владимирович;26.03.1984;;;;;;;;9904;408302;В-В1-D-D1-M;12.02.2019 по 12.02.2029;Старый;;У нас
Данияров;Азаматали;Даниярович;;;;;;;;;MKK416031;001021619;;;Старый;;У нас
Джолоев;Улан;Кушчубекович;;;;;;;;;BG;000610892;;;Старый;;У нас
Добрынин;Андрей;Рудольфович;;;;;;;;;5012;782881;;;Новый;;У нас
Ёкубов ;Дилшоджон;Турсунхужаевич;;;;;;;;;8608;885132;;06.11.2012 по 06.11.2022 ;Новый;;У нас
Жалилов;Омурбек;;;;;;;;;;;;;;Старый;;У нас
Жаныбеков;Амир;Канатович;09.09.1988;;;;;;;;DG;000528011;B-B1-C-C1;17.12.2008 по 08.04.2025;Старый;;У нас
Жолдашев;Алмазбек;;;;;;;;;;MKK416011;001077423;;;Старый;;У нас
Ибраимов;Бактыяр;Замирбекович;;;;;;;;;MKK414011;001072896;;;Старый;;У нас
Итемиров;Керим;Тагайбекович;;;;;;;;;;;;;Старый;;У нас
Итибаев;Улан;Нурланович;;;;;;;;;MKK418041;001048668;;;Старый;;У нас
Кадыров;Жандос;Акылбекович;;;;;;;;;IK;000628332;;;Старый;;У нас
Кадыров;Эльдар;Эрнисович;;;;;;;;;MKK418031;000946925;;;Старый;;У нас
Калинович;Руслан;Васильевич;;;;;;;;;;;;;Старый;;У нас
Калмыков;Станислав;Викторович;;;;;;;;;5905;857813;;;Старый;;У нас
Камчыбеков ;Тутанбек;Джакшыбекович;;;;;;;;;MKK411011;000929718;;17.01.2006 по 13.04.2028;Новый;;У нас
Каримов;Хуршед;;;;;;;;;;4012;074016;;;Старый;;У нас
Конурбаев;Дулат;Жумалдылович;;;;;;;;;OG;000673177;;;Старый;;У нас
Курбанов;Эламан;Кубатбекович;;;;;;;;;DT;000660210;;12.04.2016 по 12.04.2026;Новый;;У нас
Марс уулу;Жакшылык;;;;;;;;;;BG;000819071;;;Старый;;У нас
Наматов;Нурдин;Талантбекович;;;;;;;;;ST;000567929;;14.07.2015 по 14.07.2025;Старый;;У нас
Нурмухамед;Бакыт;;;;;;;;;;IB;000711471;;16.10.2016 по 16.10.2026;Старый;;У нас
Нуров;Фарух;Жамолидинович;;;;;;;;;DG;000758758;;;Старый;;У нас
Оморов;Изат;Зоотбекович;10.11.1989;AC1240378;21011198900396;SAIRT, 12.04.2010 по 12.04.2020;;;;;SC;000820505;;;Старый;Работает;У нас
Писакин;Юрий;;;;;;;;;;;;;;Старый;;У нас
Позилов;Раманбек;Достонбекович;;;;;;;;;SK;000533432;;;Старый;;У нас
Ракыбеков;Иззатбек;Муратович;;;;;;;;;MKK413011;000938165;;;Старый;;У нас
Савельев;Евгений;;;;;;;;;;;;;;Старый;;В ГИБДД
Сайназаров  ;Алмазбек;Исаевич;21.05.1971;АС2889861;22105197100723;SRS, 22.02.2017 по 22.02.2027;Город Москва, ул. Проезд. Грайвороновский 2-й д. 48 , стр. 1, 2.;Город Москва, шоссе Коровинское, дом № 9 , к. 2 , кв. 28.;8 (925) 372-77-93;8 (963) 755-44-05 Атыргуль (супруга);BG;000671283;B-C;27.04.2016 по 27.04.2026;Новый;;У нас
Салиев;Кубанычбек;Пулатович;;;;;;;;;MKK416011;001035054;;;Старый;;У нас
Салморбеков;Камбар;Жайдарбекович;;;;;;;;;SC;000636529;;;Старый;;У нас
Саранов;Джангр;Александрович;;;;;;;;;08ВА;051545;;;Старый;;У нас
Сонунбек уулу;Илешбек;;;;;;;;;;MKK412011;000902916;;;Старый;;У нас
Сорокин;Валентин;Павлович;;;;;;;;;9908;742674;В-В1-С-С1-М;;Старый;;У нас
Токбаев;Азис;Темирбекович;;;;;;;;;MKK418041;001078145;;04.06.2009 по 04.06.2029;Старый;;У нас
Халмурзаев;Шерзод;Садыкжанович;;;;;;;;;;000548261;В-В1-С-С1;15.01.2014 по 30.10.2028;Старый;;У нас
Хамидов;Голибшо;Маджидович;12.08.1970;;;;пос. Фооровольный, ул. Заречная, д. 14;Поселок Коммунарка, улица Лазурная, дом № 8 кв. 19;8 (900) 988-43-90;8 (905) 780-77-94 Мухаммад (сын);4816;491679;В-С;27.04.1999 по 27.06.2024;Старый;;У нас
Хлюта;Ризан;;;;;;;;;;5032;919703;;;Старый;;У нас
Шабалин;Максим;Артурович;;;;;;;;;8220;832307;;27.06.2016 по 27.06.2026;Старый;;У нас
Шамбетов;Мирзат;Мухамедович;;;;;;;;;MKK411011;001033238;;;Старый;;У нас
Щерботоев;Хамза;Акимзадеевич;;;;;;;;;AK;000675499;;;Старый;;У нас
Эралиев;Шухрат;Исраилджонович;;;;;;;;;DG;000795905;;;Старый;;У нас
Эриков;Кубат;Эмильевич;;;;;;;;;ST;000690283;;24.06.2016 по 24.06.2026;Новый;;У нас
Эркинбаев;Эмил;Маметбаевич;;;;;;;;;;;;;Старый;;У нас
Эркинов;Арген;Эркинович;;;;;;;;;ST;000815998;;23.06.2017 по 23.06.2027;Новый;;У нас
Арасланов;Даниль;Агалямович;;;;;;;;;;;;;Новый;;У нас
Авазбек Уулу;Кенешбек;;;;;;;;;;;;;;Новый;;У нас
Сорбин;Борис;Ефимович;;;;;;;;;;;;;Новый;;У нас
Усонов ;Санжарбек;Нурдинович;;;;;;;;;;;;;Новый;;У нас
Кулешов ;Андрей;Алексеевич;;;;;;;;;;;;;Новый;;У нас
Орозалиев;Жандар;Орозалиевич;;;;;;;;;;;;;Новый;;У нас
Рысалиев;Максат;Жапарбекович;02.10.1985;AN2316772;20210198500950;МКК 50-00, 25.04.2011 по 25.04.2021г;Город Москва, Поселени Десёновское ул. Ватутинская д. 8 , к. 3.;Город Москва, улица Енисейская, дом № 30 , кв. 48.;8 (999) 858-22-95 , 8 (901) 186-72-26 WhatsApp;8 (916) 079-02-01 Замир (брат) , 8 (999) 977-15-25 Анарбек (брат);ST;000588796;B-B1-C-C1-D-D1-BE-CE-C1E-D1E;08.08.2003 по 25.09.2025;Новый;;У нас
Аданькин;Денис;Алексеевич;;;;;;;;;;;;;Старый;;У нас
Илляхунов;Тахир;Рафкетович;;;;;;;;;;;;;Старый;;У нас
Щелкунов;Эдгар;Эвайевич;;;;;;;;;;;;;Старый;;У нас
Каримов;Ойбек;Бабиржанович;27.11.1994;;;;;;;;7708;268696;В;12.10.2013 по 12.10.2023;Старый;;У нас
79;;;;;;;;;;;;;;;;;
